%YAML 1.1
%TAG !u! tag:unity3d.com,2011:
--- !u!1001 &7308804645942017179
PrefabInstance:
  m_ObjectHideFlags: 0
  serializedVersion: 2
  m_Modification:
    m_TransformParent: {fileID: 0}
    m_Modifications:
    - target: {fileID: 8758510354923276219, guid: 656cedfbed6e440b095ed037eaf3d8fc,
        type: 3}
      propertyPath: m_Name
      value: Prev button Variant
      objectReference: {fileID: 0}
    - target: {fileID: 8758510354923276218, guid: 656cedfbed6e440b095ed037eaf3d8fc,
        type: 3}
      propertyPath: m_LocalPosition.x
      value: 0
      objectReference: {fileID: 0}
    - target: {fileID: 8758510354923276218, guid: 656cedfbed6e440b095ed037eaf3d8fc,
        type: 3}
      propertyPath: m_LocalPosition.y
      value: 0
      objectReference: {fileID: 0}
    - target: {fileID: 8758510354923276218, guid: 656cedfbed6e440b095ed037eaf3d8fc,
        type: 3}
      propertyPath: m_LocalPosition.z
      value: 0
      objectReference: {fileID: 0}
    - target: {fileID: 8758510354923276218, guid: 656cedfbed6e440b095ed037eaf3d8fc,
        type: 3}
      propertyPath: m_LocalRotation.x
      value: -0
      objectReference: {fileID: 0}
    - target: {fileID: 8758510354923276218, guid: 656cedfbed6e440b095ed037eaf3d8fc,
        type: 3}
      propertyPath: m_LocalRotation.y
      value: -0
      objectReference: {fileID: 0}
    - target: {fileID: 8758510354923276218, guid: 656cedfbed6e440b095ed037eaf3d8fc,
        type: 3}
      propertyPath: m_LocalRotation.z
      value: -0
      objectReference: {fileID: 0}
    - target: {fileID: 8758510354923276218, guid: 656cedfbed6e440b095ed037eaf3d8fc,
        type: 3}
      propertyPath: m_LocalRotation.w
      value: 1
      objectReference: {fileID: 0}
    - target: {fileID: 8758510354923276218, guid: 656cedfbed6e440b095ed037eaf3d8fc,
        type: 3}
      propertyPath: m_RootOrder
      value: 0
      objectReference: {fileID: 0}
    - target: {fileID: 8758510354923276218, guid: 656cedfbed6e440b095ed037eaf3d8fc,
        type: 3}
      propertyPath: m_LocalEulerAnglesHint.x
      value: 0
      objectReference: {fileID: 0}
    - target: {fileID: 8758510354923276218, guid: 656cedfbed6e440b095ed037eaf3d8fc,
        type: 3}
      propertyPath: m_LocalEulerAnglesHint.y
      value: 0
      objectReference: {fileID: 0}
    - target: {fileID: 8758510354923276218, guid: 656cedfbed6e440b095ed037eaf3d8fc,
        type: 3}
      propertyPath: m_LocalEulerAnglesHint.z
      value: 0
      objectReference: {fileID: 0}
    - target: {fileID: 8758510354923276218, guid: 656cedfbed6e440b095ed037eaf3d8fc,
        type: 3}
      propertyPath: m_AnchoredPosition.x
      value: 10
      objectReference: {fileID: 0}
    - target: {fileID: 8758510354923276218, guid: 656cedfbed6e440b095ed037eaf3d8fc,
        type: 3}
      propertyPath: m_AnchoredPosition.y
      value: 10
      objectReference: {fileID: 0}
    - target: {fileID: 8758510354923276218, guid: 656cedfbed6e440b095ed037eaf3d8fc,
        type: 3}
      propertyPath: m_SizeDelta.x
      value: 250
      objectReference: {fileID: 0}
    - target: {fileID: 8758510354923276218, guid: 656cedfbed6e440b095ed037eaf3d8fc,
        type: 3}
      propertyPath: m_SizeDelta.y
      value: 100
      objectReference: {fileID: 0}
    - target: {fileID: 8758510354923276218, guid: 656cedfbed6e440b095ed037eaf3d8fc,
        type: 3}
      propertyPath: m_AnchorMin.x
      value: 0
      objectReference: {fileID: 0}
    - target: {fileID: 8758510354923276218, guid: 656cedfbed6e440b095ed037eaf3d8fc,
        type: 3}
      propertyPath: m_AnchorMin.y
      value: 0
      objectReference: {fileID: 0}
    - target: {fileID: 8758510354923276218, guid: 656cedfbed6e440b095ed037eaf3d8fc,
        type: 3}
      propertyPath: m_AnchorMax.x
      value: 0
      objectReference: {fileID: 0}
    - target: {fileID: 8758510354923276218, guid: 656cedfbed6e440b095ed037eaf3d8fc,
        type: 3}
      propertyPath: m_AnchorMax.y
      value: 0
      objectReference: {fileID: 0}
    - target: {fileID: 8758510354923276218, guid: 656cedfbed6e440b095ed037eaf3d8fc,
        type: 3}
      propertyPath: m_Pivot.x
      value: 0
      objectReference: {fileID: 0}
    - target: {fileID: 8758510354923276218, guid: 656cedfbed6e440b095ed037eaf3d8fc,
        type: 3}
      propertyPath: m_Pivot.y
      value: 0
      objectReference: {fileID: 0}
    - target: {fileID: 8758510354923276213, guid: 656cedfbed6e440b095ed037eaf3d8fc,
        type: 3}
      propertyPath: m_OnClick.m_PersistentCalls.m_Calls.Array.size
      value: 1
      objectReference: {fileID: 0}
    - target: {fileID: 8758510354923276213, guid: 656cedfbed6e440b095ed037eaf3d8fc,
        type: 3}
      propertyPath: m_OnClick.m_PersistentCalls.m_Calls.Array.data[0].m_Mode
      value: 5
      objectReference: {fileID: 0}
    - target: {fileID: 8758510354923276213, guid: 656cedfbed6e440b095ed037eaf3d8fc,
        type: 3}
      propertyPath: m_OnClick.m_PersistentCalls.m_Calls.Array.data[0].m_CallState
      value: 2
      objectReference: {fileID: 0}
    - target: {fileID: 8758510354923276213, guid: 656cedfbed6e440b095ed037eaf3d8fc,
        type: 3}
      propertyPath: m_OnClick.m_PersistentCalls.m_Calls.Array.data[0].m_Target
      value: 
      objectReference: {fileID: 0}
    - target: {fileID: 8758510354923276213, guid: 656cedfbed6e440b095ed037eaf3d8fc,
        type: 3}
      propertyPath: m_OnClick.m_PersistentCalls.m_Calls.Array.data[0].m_MethodName
      value: LoadScene
      objectReference: {fileID: 0}
    - target: {fileID: 8758510354923276213, guid: 656cedfbed6e440b095ed037eaf3d8fc,
        type: 3}
      propertyPath: m_OnClick.m_PersistentCalls.m_Calls.Array.data[0].m_Arguments.m_ObjectArgumentAssemblyTypeName
      value: UnityEngine.Object, UnityEngine
      objectReference: {fileID: 0}
    - target: {fileID: 8758510354923276213, guid: 656cedfbed6e440b095ed037eaf3d8fc,
        type: 3}
      propertyPath: m_OnClick.m_PersistentCalls.m_Calls.Array.data[0].m_Arguments.m_StringArgument
      value: Main Menu
      objectReference: {fileID: 0}
    - target: {fileID: 8758510353331163628, guid: 656cedfbed6e440b095ed037eaf3d8fc,
        type: 3}
      propertyPath: m_Text
      value: '     Prev'
      objectReference: {fileID: 0}
    - target: {fileID: 4887626764362026842, guid: 656cedfbed6e440b095ed037eaf3d8fc,
        type: 3}
      propertyPath: m_AnchoredPosition.x
      value: -65
      objectReference: {fileID: 0}
    - target: {fileID: 7696197372721313767, guid: 656cedfbed6e440b095ed037eaf3d8fc,
        type: 3}
      propertyPath: m_Sprite
      value: 
      objectReference: {fileID: 21300000, guid: d31115fa9cb67004b96bc76f48802b9f,
        type: 3}
    m_RemovedComponents: []
  m_SourcePrefab: {fileID: 100100000, guid: 656cedfbed6e440b095ed037eaf3d8fc, type: 3}
